{"results":[{"template_version":"4","friendly_from":"sender1@ymail.com","subject":"all your base are belong to us","ip_pool":"bulk","sending_domain":"ymail.com","rcpt_tags":["csiy","tv","lh"],"type":"injection","raw_rcpt_to":"13ie7ot6519l@domain-292981","msg_from":"2831jc9543l@domain-292981","recv_method":"esmtp","rcpt_to":"13ie7ot6519l@domain-292981","transmission_id":"57430818195644790","campaign_id":"33-campaign","rcpt_meta":{"rv":"zifuvoemchpkatyb","lgo":"rcmjxvgoywuqin","vnq":"lxskwnefajzohubt","vo":"ixklepuwyh","oxs":"egdz","ws":"wncupjhbi"},"message_id":"b33fb491795c7c64019a","initial_pixel":true,"recipient_domain":"domain-292981","event_id":"34032141176212544","routing_domain":"domain-292981","sending_ip":"Monthly Newsletter","template_id":"2312345678-templ","customer_id":105,"open_tracking":true,"injection_time":"2019-03-01T20:10:28.000Z","msg_size":"1282","timestamp":"2019-03-01T20:10:28.000Z"},{"template_version":"0","friendly_from":"sender8@ymail.com","subject":"enter to win something!","ip_pool":"transaction","sending_domain":"ymail.com","rcpt_tags":[],"type":"injection","raw_rcpt_to":"manjn4hg9hc@netzero.net","msg_from":"5xwg3iek7jh@netzero.net","recv_method":"esmtp","rcpt_to":"manjn4hg9hc@netzero.net","transmission_id":"43244457864519700","campaign_id":"98-campaign","click_tracking":true,"rcpt_meta":{"bpq":"oftiykv","kwq":"taqxwhojemirc"},"message_id":"b33fb391795c6e0912af","recipient_domain":"netzero.net","event_id":"84034651369251940","routing_domain":"netzero.net","sending_ip":"Password Reset","template_id":"5112345678-templ","customer_id":105,"open_tracking":true,"injection_time":"2019-03-01T20:10:27.000Z","msg_size":"1016","timestamp":"2019-03-01T20:10:27.000Z"},{"template_version":"3","friendly_from":"sender3@ymail.com","subject":"Hi there!","ip_pool":"bulk","sending_domain":"ymail.com","rcpt_tags":["wicnyg","xpqh"],"type":"injection","raw_rcpt_to":"vwcor1pktx@cox.net","msg_from":"zcnbeahsnab@cox.net","recv_method":"esmtp","rcpt_to":"vwcor1pktx@cox.net","transmission_id":"43244457864519700","campaign_id":"76-campaign","rcpt_meta":{"eg":"jqplkcon","ns":"dcmpgkiutvjas","ywu":"undwqyaocmsf","pv":"mepdskuzxvjyw","lxu":"xtzukrfow","tcy":"npoyt","tc":"gwlnzyvredmiau","kqd":"oygaf"},"message_id":"b33fb391795cb2a140d6","recipient_domain":"cox.net","event_id":"65891201825335030","routing_domain":"cox.net","sending_ip":"Daily Marketing","template_id":"2812345678-templ","customer_id":105,"open_tracking":true,"injection_time":"2019-03-01T20:10:27.000Z","msg_size":"6421","timestamp":"2019-03-01T20:10:27.000Z"},{"template_version":"7","friendly_from":"sender4@ymail.com","subject":"totally legitimate non-spam type email","ip_pool":"things","sending_domain":"ymail.com","rcpt_tags":["fltjzayoruvmbge","ldahpksnviuxezw"],"type":"delivery","num_retries":"5","raw_rcpt_to":"ind4iiqecjf@gmail.com","msg_from":"huf5gs3goz@gmail.com","recv_method":"esmtp","rcpt_to":"ind4iiqecjf@gmail.com","transmission_id":"44420565744561170","campaign_id":"43-campaign","rcpt_meta":{"xiq":"iquzdclsxk","gox":"stmeaigohl","fnk":"mhbi","rfv":"wainzp","qu":"jnivyzfep","zbg":"ayzoftdcn"},"message_id":"b33fb191795c261c34eb","ip_address":"88.31.195.139","initial_pixel":true,"queue_time":"8317","recipient_domain":"gmail.com","event_id":"61761995144098030","routing_domain":"gmail.com","sending_ip":"Morty","template_id":"1812345678-templ","delv_method":"esmtp","customer_id":105,"open_tracking":true,"injection_time":"2019-03-01T20:10:25.000Z","msg_size":"5153","timestamp":"2019-03-01T20:10:25.000Z"},{"template_version":"4","friendly_from":"sender3@ymail.com","subject":"enter a subject line here","ip_pool":"bulk","sending_domain":"ymail.com","rcpt_tags":["joquwezbnavimk"],"type":"delivery","num_retries":"5","raw_rcpt_to":"fuj3rz84yi9@telus.net","msg_from":"qypcu26prd9@telus.net","recv_method":"esmtp","rcpt_to":"fuj3rz84yi9@telus.net","transmission_id":"44420565744561170","campaign_id":"92-campaign","click_tracking":true,"rcpt_meta":{},"message_id":"b33fb191795cfd9683c7","ip_address":"1.150.31.97","initial_pixel":true,"queue_time":"8542","recipient_domain":"telus.net","event_id":"30171718168457452","routing_domain":"telus.net","sending_ip":"Email Marketing","template_id":"3612345678-templ","delv_method":"esmtp","customer_id":105,"open_tracking":true,"injection_time":"2019-03-01T20:10:25.000Z","msg_size":"7118","timestamp":"2019-03-01T20:10:25.000Z"},{"template_version":"6","friendly_from":"sender0@ymail.com","subject":"totally legitimate non-spam type email","ip_pool":"things","sending_domain":"ymail.com","rcpt_tags":["saxgnydbfv","tslzgwjhnu","uvphzkbfcqrwxje"],"type":"delivery","num_retries":"9","raw_rcpt_to":"1geaoztsk1f@comcast.net","msg_from":"6n8pfwt61k@comcast.net","recv_method":"esmtp","rcpt_to":"1geaoztsk1f@comcast.net","transmission_id":"89868327718955090","campaign_id":"34-campaign","click_tracking":true,"rcpt_meta":{"ro":"roatcgxkvinuspe"},"message_id":"b33faf91795cf0eb47da","ip_address":"41.175.42.135","queue_time":"5514","recipient_domain":"comcast.net","event_id":"95460642324808080","routing_domain":"comcast.net","sending_ip":"Tent Ants","template_id":"8812345678-templ","delv_method":"esmtp","customer_id":105,"open_tracking":true,"injection_time":"2019-03-01T20:10:23.000Z","msg_size":"2029","timestamp":"2019-03-01T20:10:23.000Z"},{"template_version":"0","friendly_from":"sender9@ymail.com","subject":"enter to win something!","ip_pool":"things","sending_domain":"ymail.com","rcpt_tags":[],"type":"injection","raw_rcpt_to":"h2tk2f7w6q@gmail.com","msg_from":"a4xsocfhrpp@gmail.com","recv_method":"esmtp","rcpt_to":"h2tk2f7w6q@gmail.com","transmission_id":"69972136547281810","campaign_id":"12-campaign","rcpt_meta":{"uxf":"obu","xp":"cydamiesqprkb","leu":"jds","ge":"nstvwacrhfq"},"message_id":"b33fae91795cf869a1c2","initial_pixel":true,"recipient_domain":"gmail.com","event_id":"87240174463165620","routing_domain":"gmail.com","sending_ip":"Tent Ants","template_id":"9612345678-templ","customer_id":105,"open_tracking":true,"injection_time":"2019-03-01T20:10:22.000Z","msg_size":"574","timestamp":"2019-03-01T20:10:22.000Z"},{"template_version":"9","friendly_from":"sender8@ymail.com","subject":"Hi there!","ip_pool":"transaction","sending_domain":"ymail.com","rcpt_tags":["gs","vrsomxj"],"type":"injection","raw_rcpt_to":"u2uur1hgsto@gmail.com","msg_from":"rcuphg6x0cb@gmail.com","recv_method":"esmtp","rcpt_to":"u2uur1hgsto@gmail.com","transmission_id":"34631711530804868","campaign_id":"64-campaign","click_tracking":true,"rcpt_meta":{"hdl":"rpqgwkubtjfxzvms","nr":"iohbmknxratupljf","weu":"xwioufnbgdsmcaye","of":"zudtjfmhnepq","tk":"vilzcjargnxd","qi":"dlg","ib":"dlbqowxc","lht":"juxwkfrohpqagc","pmu":"gijv"},"message_id":"b33fad91795c1e5f40d6","initial_pixel":true,"recipient_domain":"gmail.com","event_id":"64490940547964830","routing_domain":"gmail.com","sending_ip":"Password Reset","template_id":"9412345678-templ","customer_id":105,"open_tracking":true,"injection_time":"2019-03-01T20:10:21.000Z","msg_size":"9422","timestamp":"2019-03-01T20:10:21.000Z"},{"template_version":"9","friendly_from":"sender8@ymail.com","subject":"Hi there!","ip_pool":"transaction","sending_domain":"ymail.com","rcpt_tags":["gs","vrsomxj"],"type":"delivery","num_retries":"9","raw_rcpt_to":"u2uur1hgsto@gmail.com","msg_from":"rcuphg6x0cb@gmail.com","recv_method":"esmtp","rcpt_to":"u2uur1hgsto@gmail.com","transmission_id":"34631711530804868","campaign_id":"64-campaign","click_tracking":true,"rcpt_meta":{"hdl":"rpqgwkubtjfxzvms","nr":"iohbmknxratupljf","weu":"xwioufnbgdsmcaye","of":"zudtjfmhnepq","tk":"vilzcjargnxd","qi":"dlg","ib":"dlbqowxc","lht":"juxwkfrohpqagc","pmu":"gijv"},"message_id":"b33fad91795c1e5f40d6","ip_address":"219.184.30.21","initial_pixel":true,"queue_time":"4981","recipient_domain":"gmail.com","event_id":"19602999001854836","routing_domain":"gmail.com","sending_ip":"Password Reset","template_id":"9412345678-templ","delv_method":"esmtp","customer_id":105,"open_tracking":true,"injection_time":"2019-03-01T20:10:21.000Z","msg_size":"9422","timestamp":"2019-03-01T20:10:21.000Z"},{"template_version":"2","friendly_from":"sender5@ymail.com","subject":"exciting offers.","ip_pool":"transaction","sending_domain":"ymail.com","rcpt_tags":["pwu"],"type":"delivery","num_retries":"1","raw_rcpt_to":"gr9brg31imf@yahoo.com","msg_from":"h19mb6n9tl5@yahoo.com","recv_method":"esmtp","rcpt_to":"gr9brg31imf@yahoo.com","transmission_id":"34631711530804868","campaign_id":"35-campaign","rcpt_meta":{},"message_id":"b33fad91795c5b10f826","ip_address":"134.128.217.148","initial_pixel":true,"queue_time":"2771","recipient_domain":"yahoo.com","event_id":"18276112393881444","routing_domain":"yahoo.com","sending_ip":"Confirmation","template_id":"8312345678-templ","delv_method":"esmtp","customer_id":105,"open_tracking":true,"injection_time":"2019-03-01T20:10:21.000Z","msg_size":"6433","timestamp":"2019-03-01T20:10:21.000Z"},{"template_version":"8","friendly_from":"sender9@ymail.com","subject":"enter to win something!","ip_pool":"transaction","sending_domain":"ymail.com","rcpt_tags":["sznbqpokelfwir"],"type":"injection","raw_rcpt_to":"hgnyuib16w7@yahoo.com","msg_from":"7x5j5zyqtfa@yahoo.com","recv_method":"esmtp","rcpt_to":"hgnyuib16w7@yahoo.com","transmission_id":"77550244228624030","campaign_id":"66-campaign","rcpt_meta":{},"message_id":"b33fac91795c76508e91","initial_pixel":true,"recipient_domain":"yahoo.com","event_id":"66965408058931510","routing_domain":"yahoo.com","sending_ip":"Password Reset","template_id":"8312345678-templ","customer_id":105,"injection_time":"2019-03-01T20:10:20.000Z","msg_size":"8405","timestamp":"2019-03-01T20:10:20.000Z"},{"reason":"452 - 4.3.2 Too many recipients #7","template_version":"1","friendly_from":"sender1@ymail.com","subject":"enter to win something!","ip_pool":"transaction","sending_domain":"ymail.com","rcpt_tags":["jleiwxonu","otdfnavbrgljhq","zcegmvpy"],"type":"delay","num_retries":"5","bounce_class":"70","raw_rcpt_to":"ph17wjmxcp@comcast.net","msg_from":"lj4f6uygeuf@comcast.net","recv_method":"esmtp","rcpt_to":"ph17wjmxcp@comcast.net","transmission_id":"93057070793562420","campaign_id":"40-campaign","rcpt_meta":{"xu":"kzbw"},"message_id":"b33fab91795cac40f19d","ip_address":"160.108.2.118","queue_time":"3599","recipient_domain":"comcast.net","event_id":"96253893278224240","routing_domain":"comcast.net","sending_ip":"Password Reset","error_code":"452","template_id":"4912345678-templ","customer_id":105,"open_tracking":true,"injection_time":"2019-03-01T20:10:19.000Z","msg_size":"2266","timestamp":"2019-03-01T20:10:19.000Z"},{"template_version":"9","friendly_from":"sender1@ymail.com","subject":"enter to win something!","ip_pool":"things","sending_domain":"ymail.com","rcpt_tags":[],"type":"delivery","num_retries":"4","raw_rcpt_to":"ku8mium9i6s@yahoo.com","msg_from":"14q4dxdkr4j@yahoo.com","recv_method":"esmtp","rcpt_to":"ku8mium9i6s@yahoo.com","transmission_id":"93057070793562420","campaign_id":"56-campaign","click_tracking":true,"rcpt_meta":{"lsg":"sjarlvxocdhtw","ug":"fcdwimphgqtvjxza","qe":"adpkhbufirwqms","uxm":"rzjcwatnplqk","ro":"livestqhuzxgydmp"},"message_id":"b33fab91795c46fc10ae","ip_address":"181.0.52.213","queue_time":"5764","recipient_domain":"yahoo.com","event_id":"75426645516594020","routing_domain":"yahoo.com","sending_ip":"Morty","template_id":"template_10663776220821296","delv_method":"esmtp","customer_id":105,"open_tracking":true,"injection_time":"2019-03-01T20:10:19.000Z","msg_size":"9163","timestamp":"2019-03-01T20:10:19.000Z"},{"template_version":"1","friendly_from":"sender9@ymail.com","subject":"15 awesome clickbait articles sure to spice up your day","ip_pool":"things","sending_domain":"ymail.com","rcpt_tags":["pehkzqswrnxigd"],"type":"delivery","num_retries":"3","raw_rcpt_to":"n0bvmkpfofj@comcast.net","msg_from":"iakw015s7t@comcast.net","recv_method":"esmtp","rcpt_to":"n0bvmkpfofj@comcast.net","subaccount_id":747,"transmission_id":"93057070793562420","campaign_id":"55-campaign","click_tracking":true,"rcpt_meta":{"cf":"zlhyaixvmdjfw","lkd":"pbsal","wp":"kzcheatdl","ak":"qaxgsritd","my":"sgfz","chq":"axk","xe":"doazcev"},"message_id":"b33fab91795cf2b6d035","ip_address":"184.166.241.35","queue_time":"5583","recipient_domain":"comcast.net","event_id":"57784750464714060","routing_domain":"comcast.net","sending_ip":"Pizza","template_id":"9812345678-templ","delv_method":"esmtp","customer_id":105,"open_tracking":true,"injection_time":"2019-03-01T20:10:19.000Z","msg_size":"4454","timestamp":"2019-03-01T20:10:19.000Z"},{"template_version":"4","friendly_from":"sender8@ymail.com","subject":"15 awesome clickbait articles sure to spice up your day","ip_pool":"things","sending_domain":"ymail.com","rcpt_tags":["cqygareivk","xodku"],"type":"injection","raw_rcpt_to":"l1t2kn2fc8i@gmail.com","msg_from":"xmnr6w9vuj@gmail.com","recv_method":"esmtp","rcpt_to":"l1t2kn2fc8i@gmail.com","subaccount_id":689,"transmission_id":"93057070793562420","campaign_id":"82-campaign","click_tracking":true,"rcpt_meta":{"af":"lpsrtdniwfhb","ri":"exg","mgr":"udgvmapxo"},"message_id":"b33fab91795cafd5176e","initial_pixel":true,"recipient_domain":"gmail.com","event_id":"57372381121979224","routing_domain":"gmail.com","sending_ip":"Morty","template_id":"3012345678-templ","customer_id":105,"open_tracking":true,"injection_time":"2019-03-01T20:10:19.000Z","msg_size":"3829","timestamp":"2019-03-01T20:10:19.000Z"},{"template_version":"7","friendly_from":"sender7@ymail.com","subject":"all your base are belong to us","ip_pool":"transaction","sending_domain":"ymail.com","rcpt_tags":["oyqlubgszfwnjapt","ylj","oypuxa"],"type":"injection","raw_rcpt_to":"1ey5krz8enm@yahoo.com","msg_from":"kpv97hyp9vl@yahoo.com","recv_method":"esmtp","rcpt_to":"1ey5krz8enm@yahoo.com","transmission_id":"93057070793562420","campaign_id":"99-campaign","click_tracking":true,"rcpt_meta":{"nbi":"bemrgulpnsawk"},"message_id":"b33fab91795c5d973c02","initial_pixel":true,"recipient_domain":"yahoo.com","event_id":"53547755940341800","routing_domain":"yahoo.com","sending_ip":"Password Reset","template_id":"3012345678-templ","customer_id":105,"open_tracking":true,"injection_time":"2019-03-01T20:10:19.000Z","msg_size":"8536","timestamp":"2019-03-01T20:10:19.000Z"},{"template_version":"1","friendly_from":"sender9@ymail.com","subject":"15 awesome clickbait articles sure to spice up your day","ip_pool":"things","sending_domain":"ymail.com","rcpt_tags":["pehkzqswrnxigd"],"type":"injection","raw_rcpt_to":"n0bvmkpfofj@comcast.net","msg_from":"iakw015s7t@comcast.net","recv_method":"esmtp","rcpt_to":"n0bvmkpfofj@comcast.net","subaccount_id":747,"transmission_id":"93057070793562420","campaign_id":"55-campaign","click_tracking":true,"rcpt_meta":{"cf":"zlhyaixvmdjfw","lkd":"pbsal","wp":"kzcheatdl","ak":"qaxgsritd","my":"sgfz","chq":"axk","xe":"doazcev"},"message_id":"b33fab91795cf2b6d035","recipient_domain":"comcast.net","event_id":"35734117480845256","routing_domain":"comcast.net","sending_ip":"Pizza","template_id":"9812345678-templ","customer_id":105,"open_tracking":true,"injection_time":"2019-03-01T20:10:19.000Z","msg_size":"4454","timestamp":"2019-03-01T20:10:19.000Z"},{"template_version":"7","friendly_from":"sender7@ymail.com","subject":"all your base are belong to us","ip_pool":"transaction","sending_domain":"ymail.com","rcpt_tags":["oyqlubgszfwnjapt","ylj","oypuxa"],"type":"delivery","num_retries":"6","raw_rcpt_to":"1ey5krz8enm@yahoo.com","msg_from":"kpv97hyp9vl@yahoo.com","recv_method":"esmtp","rcpt_to":"1ey5krz8enm@yahoo.com","transmission_id":"93057070793562420","campaign_id":"99-campaign","click_tracking":true,"rcpt_meta":{"nbi":"bemrgulpnsawk"},"message_id":"b33fab91795c5d973c02","ip_address":"58.174.181.145","initial_pixel":true,"queue_time":"2340","recipient_domain":"yahoo.com","event_id":"13022007663638376","routing_domain":"yahoo.com","sending_ip":"Password Reset","template_id":"3012345678-templ","delv_method":"esmtp","customer_id":105,"open_tracking":true,"injection_time":"2019-03-01T20:10:19.000Z","msg_size":"8536","timestamp":"2019-03-01T20:10:19.000Z"},{"template_version":"2","friendly_from":"sender7@ymail.com","subject":"15 awesome clickbait articles sure to spice up your day","ip_pool":"transaction","sending_domain":"ymail.com","rcpt_tags":["vjsa","ferskl","jybmgfcp","zbesyw"],"type":"injection","raw_rcpt_to":"n9yv8f4keej@yahoo.com","msg_from":"6ek9x5ny94a@yahoo.com","recv_method":"esmtp","rcpt_to":"n9yv8f4keej@yahoo.com","subaccount_id":870,"transmission_id":"42627703453269710","campaign_id":"78-campaign","rcpt_meta":{"lzs":"udrhzobnakpcil","qv":"pbxyi","wln":"lxfrhbakyivsu"},"message_id":"b33faa91795cfe517cb8","initial_pixel":true,"recipient_domain":"yahoo.com","event_id":"88039044109415260","routing_domain":"yahoo.com","sending_ip":"Confirmation","template_id":"3912345678-templ","customer_id":105,"open_tracking":true,"injection_time":"2019-03-01T20:10:18.000Z","msg_size":"4302","timestamp":"2019-03-01T20:10:18.000Z"},{"template_version":"3","friendly_from":"sender8@ymail.com","subject":"15 awesome clickbait articles sure to spice up your day","ip_pool":"transaction","sending_domain":"ymail.com","rcpt_tags":["kpisyeuorbvnhfta"],"type":"initial_open","raw_rcpt_to":"y780cg1x49e@aol.com","msg_from":"4yqqwpsjvts@aol.com","rcpt_to":"y780cg1x49e@aol.com","geo_ip":{"zip":0,"country":"US","city":"","latitude":37.751,"region":"","postal_code":"","longitude":-97.822},"transmission_id":"88743949728646610","campaign_id":"62-campaign","user_agent":"mock-ua/1.0","click_tracking":true,"rcpt_meta":{"pdw":"xz","ftp":"axgltvjmcwsbd","jdc":"ij","ok":"xomrqvntjey"},"message_id":"b33f7791795cd501e689","ip_address":"192.157.70.200","initial_pixel":true,"recipient_domain":"aol.com","event_id":"51058114419901650","routing_domain":"aol.com","sending_ip":"Password Reset","template_id":"6612345678-templ","delv_method":"esmtp","customer_id":105,"injection_time":"2019-03-01T20:09:27.000Z","msg_size":"461","timestamp":"2019-03-01T20:10:17.000Z"},{"template_version":"0","friendly_from":"sender8@ymail.com","subject":"15 awesome clickbait articles sure to spice up your day","ip_pool":"transaction","sending_domain":"ymail.com","rcpt_tags":["kpisyeuorbvnhfta"],"type":"open","raw_rcpt_to":"y780cg1x49e@aol.com","msg_from":"4yqqwpsjvts@aol.com","rcpt_to":"y780cg1x49e@aol.com","transmission_id":"88743949728646610","campaign_id":"62-campaign","user_agent":"mock-ua/1.0","click_tracking":true,"rcpt_meta":{"pdw":"xz","ftp":"axgltvjmcwsbd","jdc":"ij","ok":"xomrqvntjey"},"message_id":"b33f7791795cd501e689","ip_address":"236.82.87.20","initial_pixel":true,"recipient_domain":"aol.com","event_id":"27411502408616944","routing_domain":"aol.com","sending_ip":"Password Reset","template_id":"6612345678-templ","delv_method":"esmtp","customer_id":105,"injection_time":"2019-03-01T20:09:27.000Z","msg_size":"461","timestamp":"2019-03-01T20:10:17.000Z"},{"template_version":"0","friendly_from":"sender3@ymail.com","subject":"15 awesome clickbait articles sure to spice up your day","ip_pool":"transaction","sending_domain":"ymail.com","rcpt_tags":["yipoeqnvlzrxbc","cmyjdgqriwulkotf","agv"],"type":"injection","raw_rcpt_to":"awoz5s6thf@domain-38231","msg_from":"pfudf4habo7@domain-38231","recv_method":"esmtp","rcpt_to":"awoz5s6thf@domain-38231","subaccount_id":283,"transmission_id":"71501447787039060","campaign_id":"29-campaign","rcpt_meta":{},"message_id":"b33fa891795c7896d4cb","initial_pixel":true,"recipient_domain":"domain-38231","event_id":"90719353897218160","routing_domain":"domain-38231","sending_ip":"Confirmation","template_id":"smtp_10333964812466124","customer_id":105,"open_tracking":true,"injection_time":"2019-03-01T20:10:16.000Z","msg_size":"5168","timestamp":"2019-03-01T20:10:16.000Z"},{"template_version":"5","friendly_from":"sender2@ymail.com","subject":"enter to win something!","ip_pool":"bulk","sending_domain":"ymail.com","rcpt_tags":["hjtavuqsldwb","ezfo","rewbadopvsjhqcyx"],"type":"injection","raw_rcpt_to":"fgrwc4eurk@hotmail.com","msg_from":"fqpzdw4qhik@hotmail.com","recv_method":"esmtp","rcpt_to":"fgrwc4eurk@hotmail.com","transmission_id":"71501447787039060","campaign_id":"67-campaign","click_tracking":true,"rcpt_meta":{"igp":"ycaewkulszgxtp","jkz":"us","oun":"fodhslcvb","nl":"utcwjhoyxns","db":"fm","imr":"uzt"},"message_id":"b33fa891795c5c0276ad","recipient_domain":"hotmail.com","event_id":"89534159579780530","routing_domain":"hotmail.com","sending_ip":"Monthly Newsletter","template_id":"6512345678-templ","customer_id":105,"open_tracking":true,"injection_time":"2019-03-01T20:10:16.000Z","msg_size":"7642","timestamp":"2019-03-01T20:10:16.000Z"},{"reason":"554 - 5.7.1 Blacklisted by black.uribl.com&lt;-a.b.c.d;  Contact the postmaster of this domain for resolution. #15","template_version":"4","friendly_from":"sender9@ymail.com","subject":"totally legitimate non-spam type email","ip_pool":"transaction","sending_domain":"ymail.com","rcpt_tags":["mxfhyuegsozc"],"type":"bounce","num_retries":8,"bounce_class":"51","raw_rcpt_to":"ig6bwy88bol@yahoo.com","msg_from":"x2rha96nywa@yahoo.com","recv_method":"esmtp","rcpt_to":"ig6bwy88bol@yahoo.com","transmission_id":"71501447787039060","campaign_id":"41-campaign","click_tracking":true,"rcpt_meta":{},"message_id":"b33fa891795c52068a79","ip_address":"29.106.154.197","initial_pixel":true,"recipient_domain":"yahoo.com","event_id":"61124511588729370","routing_domain":"yahoo.com","sending_ip":"Password Reset","raw_reason":"5.7.1 Blacklisted by black.uribl.com&lt;-216.18.102.4;  Contact the postmaster of this domain for resolution.","error_code":"554","template_id":"9812345678-templ","delv_method":"esmtp","customer_id":105,"open_tracking":true,"injection_time":"2019-03-01T20:10:16.000Z","msg_size":"8416","timestamp":"2019-03-01T20:10:16.000Z"},{"template_version":"5","friendly_from":"sender2@ymail.com","subject":"enter to win something!","ip_pool":"bulk","sending_domain":"ymail.com","rcpt_tags":["hjtavuqsldwb","ezfo","rewbadopvsjhqcyx"],"type":"delivery","num_retries":"1","raw_rcpt_to":"fgrwc4eurk@hotmail.com","msg_from":"fqpzdw4qhik@hotmail.com","recv_method":"esmtp","rcpt_to":"fgrwc4eurk@hotmail.com","transmission_id":"71501447787039060","campaign_id":"67-campaign","click_tracking":true,"rcpt_meta":{"igp":"ycaewkulszgxtp","jkz":"us","oun":"fodhslcvb","nl":"utcwjhoyxns","db":"fm","imr":"uzt"},"message_id":"b33fa891795c5c0276ad","ip_address":"214.94.65.57","queue_time":"7727","recipient_domain":"hotmail.com","event_id":"22263626358757160","routing_domain":"hotmail.com","sending_ip":"Monthly Newsletter","template_id":"6512345678-templ","delv_method":"esmtp","customer_id":105,"open_tracking":true,"injection_time":"2019-03-01T20:10:16.000Z","msg_size":"7642","timestamp":"2019-03-01T20:10:16.000Z"}],"total_count":36405,"links":{"next":"/api/v1/events/message?cursor=MTU1MTQ3MTAxNjAwMCwyMjI2MzYyNjM1ODc1NzE2MA==&from=2019-03-01T19:10&to=2019-03-01T20:10&per_page=25"}}