{
  "results": [
    {
      "template_version": "8",
      "friendly_from": "fake-sender@hotmail.com",
      "subject": "Click me to learn more",
      "ip_pool": "things",
      "sending_domain": "hotmail.com",
      "rcpt_tags": ["abc", "def", "ghi"],
      "type": "injection",
      "raw_rcpt_to": "fake-recipient@hotmail.com",
      "msg_from": "fake-sender@yahoo.com",
      "recv_method": "esmtp",
      "rcpt_to": "fake-recipient@hotmail.com",
      "transmission_id": "21175596944301160",
      "campaign_id": "fake-campaign",
      "click_tracking": true,
      "rcpt_meta": {
        "ocd": "dupfvw",
        "zkt": "hidsfuyg",
        "lxn": "soubnwdlqtk",
        "tz": "qlisxngytwdfjhbz",
        "tqs": "pfenkxq",
        "rwm": "drbszow",
        "ahd": "kqeghlpmnbi",
        "ldv": "nhzfoymwiqra"
      },
      "message_id": "mock-message-id-1",
      "initial_pixel": true,
      "recipient_domain": "hotmail.com",
      "event_id": "12345678910",
      "routing_domain": "hotmail.com",
      "sending_ip": "Morty",
      "template_id": "4512345678-templ",
      "customer_id": 123,
      "open_tracking": true,
      "injection_time": "2020-01-30T19:42:32.000Z",
      "msg_size": "1730",
      "timestamp": "2020-01-30T19:42:32.000Z"
    },
    {
      "template_version": "8",
      "friendly_from": "fake-sender@hotmail.com",
      "subject": "Click me to learn more",
      "ip_pool": "things",
      "sending_domain": "hotmail.com",
      "rcpt_tags": ["abc", "def", "ghi"],
      "type": "delivery",
      "num_retries": "9",
      "raw_rcpt_to": "fake-recipient@gmail.com",
      "msg_from": "fake-sender@yahoo.com",
      "recv_method": "esmtp",
      "rcpt_to": "fake-recipient@gmail.com",
      "transmission_id": "21175596944301160",
      "campaign_id": "fake-campaign",
      "click_tracking": true,
      "rcpt_meta": {
        "ocd": "dupfvw",
        "zkt": "hidsfuyg",
        "lxn": "soubnwdlqtk",
        "tz": "qlisxngytwdfjhbz",
        "tqs": "pfenkxq",
        "rwm": "drbszow",
        "ahd": "kqeghlpmnbi",
        "ldv": "nhzfoymwiqra"
      },
      "message_id": "mock-message-id-2",
      "ip_address": "127.0.0.1",
      "initial_pixel": true,
      "queue_time": "531",
      "recipient_domain": "hotmail.com",
      "event_id": "11121314151617",
      "routing_domain": "hotmail.com",
      "sending_ip": "fake-sending-ip",
      "template_id": "fake-template-id",
      "delv_method": "esmtp",
      "customer_id": 123,
      "open_tracking": true,
      "injection_time": "2020-01-30T19:42:32.000Z",
      "msg_size": "1730",
      "timestamp": "2020-01-30T19:42:32.000Z"
    }
  ],
  "total_count": 35636,
  "links": {
    "next": "/api/v1/events/message?cursor=MTU4MDQxMzM0ODAwMCw4MjE4OTQ4MDQ3MTc3OTczMA==&from=2020-01-30T18:43:00&to=2020-01-30T19:43:00&per_page=25"
  }
}
